activesupport (4.2.7.1)
addressable (2.4.0)
archive-tar-minitar (0.5.2)
arel (3.0.2)
bcrypt-ruby (3.0.1)
bigdecimal (1.2.8)
builder (3.0.4)
bundler (1.13.6, 1.13.1)
callsite (0.0.11)
coderay (1.0.9)
coffee-script-source (1.6.2)
did_you_mean (1.0.0)
diff-lcs (1.2.4)
dotenv (0.7.0)
ember_script-source (0.0.8)
emblem-source (0.2.9)
erubis (2.7.0)
eventmachine (1.2.0.1)
execjs (1.4.0)
facebook-cli (1.4.0)
facy (1.2.18)
faraday (0.9.2)
handlebars-source (1.0.0.rc4)
high_voltage (1.2.3)
highline (1.6.19)
hike (1.2.3)
http_parser.rb (0.5.3)
httparty (0.11.0)
i18n (0.7.0, 0.6.1)
io-console (0.4.5)
ipaddress (0.8.0)
journey (1.0.4)
json (1.8.3)
koala (1.11.1)
launchy (2.4.3)
maruku (0.7.2)
method_source (0.8.1)
mime-types (1.23)
minitest (5.8.3)
mixlib-cli (1.3.0)
mixlib-config (1.1.2)
mixlib-log (1.6.0)
mixlib-shellout (1.1.0)
multi_json (1.7.6)
multi_xml (0.5.4)
multipart-post (2.0.0)
net-ssh (2.6.7)
net-telnet (0.1.1)
nokogiri (1.5.9)
orm_adapter (0.4.0)
pg (0.15.1)
polyglot (0.3.3)
power_assert (0.2.6)
psych (2.0.17)
rack (1.4.5)
rake (10.4.2, 10.0.4)
rdoc (4.2.1)
request_store (1.0.5)
rspec-core (2.13.1)
rspec-mocks (2.13.1)
sass (3.4.22, 3.2.9)
slop (3.4.5)
systemu (2.5.2)
test-unit (3.1.5)
thor (0.19.1, 0.18.1)
thread_safe (0.3.5)
tilt (1.4.1)
tmuxinator (0.8.1)
tzinfo (1.2.2, 0.3.37)
yajl-ruby (1.1.0)
yard (0.8.7.6)
