Content-Type: text/x-zim-wiki
Wiki-Format: zim 0.4
Creation-Date: 2016-10-09T14:27:11-07:00

====== Useful commands ======
Created Sunday 09 October 2016

**Scans directories for git repos**

find / -name ".git"
